^C:\USERS\USER\SOURCE\REPOS\SKILLBOX14\DEBUG\SKILLBOX14.OBJ
C:\USERS\USER\SOURCE\REPOS\SKILLBOX14\DEBUG\SKILLBOX14.EXE
C:\USERS\USER\SOURCE\REPOS\SKILLBOX14\DEBUG\SKILLBOX14.ILK
C:\USERS\USER\SOURCE\REPOS\SKILLBOX14\DEBUG\SKILLBOX14.PDB
